{
  "alignment": [
    "Lawful Good",
    "Neutral Good",
    "Chaotic Good",
    "Lawful Neutral",
    "Neutral",
    "Chaotic Neutral",
    "Lawful Evil",
    "Neutral Evil",
    "Chaotic Evil"
  ],
  "background": [
    "Acolyte",
    "Charlatan",
    "Criminal",
    "Entertainer",
    "Folk Hero",
    "Gladiator",
    "Guild Artisan",
    "Guild Merchant",
    "Hermit",
    "Knight",
    "Noble",
    "Outlander",
    "Pirate",
    "Sage",
    "Sailor",
    "Soldier",
    "Spy",
    "Urchin"
  ],
  "class": [
    "Artificer",
    "Barbarian",
    "Bard",
    "Blood Hunter",
    "Cleric",
    "Fighter",
    "Monk",
    "Rogue",
    "Sorcerer",
    "Warlock",
    "Wizard"
  ],
  "origin": [
    "#alignment# #race# #class# - #background# background"
  ],
  "race": [
    "Aarakocra",
    "Aasimar",
    "Bugbear",
    "Centaur",
    "Changeling",
    "Dragonborn",
    "Dwarf",
    "Elf",
    "Firbolg",
    "Genasi",
    "Gith",
    "Gnome",
    "Goblin",
    "Goliath",
    "Half-Elf",
    "Half-Orc",
    "Halfling",
    "Hobgoblin",
    "Kalashtar",
    "Kenku",
    "Kobold",
    "Lizardfolk",
    "Loxodon",
    "Minotaur",
    "Orc",
    "Shifter",
    "Simic Hybrid",
    "Tabaxi",
    "Tiefling",
    "Tortle",
    "Triton",
    "Vedalken",
    "Warforged",
    "Yuan-Ti"
  ]
}
